<svg xmlns="http://www.w3.org/2000/svg" viewBox="0 0 21.13 26.89">
    <title>duration</title>
    <g id="a35624b0-528b-4f13-b167-ca0ab4501a5e" data-name="Layer 2">
        <g id="a0eae760-9e9d-48d2-aa70-3d058900f892" data-name="Layer 1">
            <path id="f11cd89f-1c6b-468e-b5d9-4f6913faa28b" data-name="Fill-1" class="b208a6ca-e20f-4a4a-bd7d-964b4bc3dc01" d="M5.61,25.21V23.42H10a.84.84,0,0,0,.84-.83.85.85,0,0,0-.84-.84H5.61V20.5H8.25a.84.84,0,1,0,0-1.68H5.68a5,5,0,0,1,4.05-4.05v.45a.84.84,0,0,0,1.67,0v-.45a5,5,0,0,1,4.13,4.88v5.57Zm9.91-18H12.75l-2,.92L8.86,7.2H5.61V2.51h9.91Zm4.77,18h-3.1V19.65a6.64,6.64,0,0,0-3.41-5.8A6.66,6.66,0,0,0,17.2,8.06V1.67h3.1a.83.83,0,0,0,.83-.83A.83.83,0,0,0,20.3,0H.84a.84.84,0,1,0,0,1.67H3.93V8.06a6.62,6.62,0,0,0,3.42,5.79,6.63,6.63,0,0,0-3.42,5.8v5.57H.84a.83.83,0,0,0-.84.83.84.84,0,0,0,.84.84H20.29a.84.84,0,0,0,.83-.84.83.83,0,0,0-.83-.83Z"/>
            <path id="a45bd7fb-3e10-4593-9e24-a0e749348630" data-name="Fill-4" class="b208a6ca-e20f-4a4a-bd7d-964b4bc3dc01" d="M10.57,17a.84.84,0,0,0-.84.84V18a.84.84,0,0,0,1.67,0v-.16a.84.84,0,0,0-.83-.84"/>
        </g>
    </g>
</svg>
